[
    {
        "id": 1,
        "product_name": "Susu Naga",
        "price": 10000,
        "orderId": 2
    },
    {
        "id": 2,
        "product_name": "Skit-cha",
        "price": 5000,
        "orderId": 1
    },
    {
        "id": 3,
        "product_name": "Sari Bread",
        "price": 14000,
        "orderId": 3
    }
]